%YAML 1.1
%TAG !u! tag:unity3d.com,2011:
--- !u!114 &11400000
MonoBehaviour:
  m_ObjectHideFlags: 0
  m_CorrespondingSourceObject: {fileID: 0}
  m_PrefabInstance: {fileID: 0}
  m_PrefabAsset: {fileID: 0}
  m_GameObject: {fileID: 0}
  m_Enabled: 1
  m_EditorHideFlags: 0
  m_Script: {fileID: 11500000, guid: cf4391b2ce9726f4db4c3c8273301bad, type: 3}
  m_Name: PopupConfigs
  m_EditorClassIdentifier: 
  id: popup_configs
  isUseTicker: 0
  ticker: {fileID: 0}
  baseOrder: 10
